Time used: 0.011506 s
Time used: 0.012277 s
Time used: 0.012210 s
Time used: 0.012216 s
Time used: 0.012214 s
Time used: 0.012210 s
Time used: 0.012219 s
Time used: 0.012222 s
Time used: 0.012219 s
Time used: 0.012218 s
Time used: 0.012280 s
Time used: 0.012210 s
Time used: 0.012219 s
Time used: 0.012205 s
Time used: 0.012206 s
Time used: 0.012223 s
Time used: 0.012212 s
Time used: 0.012210 s
Time used: 0.012306 s
Time used: 0.012212 s
Time used: 0.012206 s
Time used: 0.012217 s
Time used: 0.012209 s
Time used: 0.012205 s
Time used: 0.012222 s
Time used: 0.012223 s
Time used: 0.012285 s
Time used: 0.012249 s
Time used: 0.012222 s
Time used: 0.012213 s
Time used: 0.012220 s
Time used: 0.012210 s
Time used: 0.012208 s
Time used: 0.012221 s
Time used: 0.012256 s
Time used: 0.012279 s
Time used: 0.012221 s
Time used: 0.012210 s
Time used: 0.012204 s
Time used: 0.012223 s
Time used: 0.012214 s
Time used: 0.012208 s
Time used: 0.011662 s
Time used: 0.011531 s
Time used: 0.011456 s
Time used: 0.011446 s
Time used: 0.011454 s
Time used: 0.011449 s
Time used: 0.011453 s
Time used: 0.011456 s
Time used: 0.011463 s
Time used: 0.011454 s
Time used: 0.011521 s
Time used: 0.011453 s
Time used: 0.011456 s
Time used: 0.011453 s
Time used: 0.011455 s
Time used: 0.011452 s
Time used: 0.011454 s
Time used: 0.011441 s
Time used: 0.011514 s
Time used: 0.011530 s
Time used: 0.011461 s
Time used: 0.011445 s
Time used: 0.011449 s
Time used: 0.011454 s
Time used: 0.011450 s
Time used: 0.011446 s
Time used: 0.011441 s
Time used: 0.011452 s
Time used: 0.011516 s
Time used: 0.011451 s
Time used: 0.011450 s
Time used: 0.011456 s
Time used: 0.011453 s
Time used: 0.011456 s
Time used: 0.011454 s
Time used: 0.011439 s
Time used: 0.011483 s
Time used: 0.011537 s
Time used: 0.011451 s
Time used: 0.011452 s
Time used: 0.011454 s
Time used: 0.011931 s
Time used: 0.011484 s
Time used: 0.011795 s
Time used: 0.012215 s
Time used: 0.012226 s
Time used: 0.012287 s
Time used: 0.012217 s
Time used: 0.012217 s
Time used: 0.012258 s
Time used: 0.012216 s
Time used: 0.012219 s
Time used: 0.012215 s
Time used: 0.012230 s
Time used: 0.011933 s
Time used: 0.011461 s
Time used: 0.011443 s
Time used: 0.011454 s
Time average: 0.011867 s
